<svg width="24" height="24" viewBox="0 0 24 24" fill="none" xmlns="http://www.w3.org/2000/svg">
<path fill-rule="evenodd" clip-rule="evenodd" d="M1 1.64467V22.3553C1 23.0741 1.40867 23.6955 2.0096 24L13.8481 12L2.0096 0C1.40867 0.292387 1 0.925893 1 1.64467ZM4.66573 23.3787L17.598 15.8011L14.8697 13.0355L4.66573 23.3787ZM21.6243 10.5503C22.0328 10.8792 22.3333 11.3908 22.3333 12C22.3333 12.6092 22.0689 13.0964 21.6483 13.4376L18.896 15.0457L15.8913 12L18.896 8.95427L21.6243 10.5503ZM17.598 8.19893L4.66573 0.62132L14.8697 10.9645L17.598 8.19893Z" fill="#0B1F35"/>
</svg>
